{
    "ID": "3d5b0dc5-ed50-cfa3-1146-c67821d01a75",
    "Namespace": "default",
    "EvalID": "67042fe1-c679-3042-5006-8817ba88762a",
    "Name": "dubdevpop-game-configuration.gpas-game-configuration[0]",
    "NodeID": "127bb125-a0fc-b66b-0658-b4ea6158a5a0",
    "NodeName": "trainer-arch",
    "JobID": "dubdevpop-game-configuration",
    "Job": {
        "Stop": false,
        "Region": "global",
        "Namespace": "default",
        "ID": "dubdevpop-game-configuration",
        "ParentID": "",
        "Name": "dubdevpop-game-configuration",
        "Type": "system",
        "Priority": 50,
        "AllAtOnce": false,
        "Datacenters": ["dub"],
        "Constraints": null,
        "Affinities": null,
        "Spreads": null,
        "TaskGroups": [{
            "Name": "gpas-game-configuration",
            "Count": 1,
            "Update": null,
            "Migrate": null,
            "Constraints": [{
                "LTarget": "${meta.network_segment}",
                "RTarget": "pub",
                "Operand": "regexp"
            }, {
                "LTarget": "${meta.app}",
                "RTarget": "gpas",
                "Operand": "="
            }],
            "RestartPolicy": {
                "Attempts": 2,
                "Interval": 1800000000000,
                "Delay": 15000000000,
                "Mode": "fail"
            },
            "Tasks": [{
                "Name": "gpas-game-configuration",
                "Driver": "docker",
                "User": "",
                "Config": {
                    "image": "10.191.34.122:5000/gdevops/gpas-game-configuration:${NOMAD_META_appVersion}",
                    "volumes": ["/var/local/gpas:/host"]
                },
                "Env": {
                    "BASE_DIR": "/host",
                    "DATA_DIR": "/var/local/gpas/gpas-core-pack/gpas-game-configuration",
                    "ENVIRONMENT": "dubdevpop"
                },
                "Services": null,
                "Vault": null,
                "Templates": null,
                "Constraints": null,
                "Affinities": null,
                "Resources": {
                    "CPU": 100,
                    "MemoryMB": 300,
                    "DiskMB": 0,
                    "IOPS": 0,
                    "Networks": null,
                    "Devices": null
                },
                "DispatchPayload": null,
                "Meta": null,
                "KillTimeout": 5000000000,
                "LogConfig": {
                    "MaxFiles": 10,
                    "MaxFileSizeMB": 10
                },
                "Artifacts": null,
                "Leader": false,
                "ShutdownDelay": 0,
                "KillSignal": ""
            }],
            "EphemeralDisk": {
                "Sticky": false,
                "SizeMB": 300,
                "Migrate": false
            },
            "Meta": null,
            "ReschedulePolicy": null,
            "Affinities": null,
            "Spreads": null
        }],
        "Update": {
            "Stagger": 0,
            "MaxParallel": 0,
            "HealthCheck": "",
            "MinHealthyTime": 0,
            "HealthyDeadline": 0,
            "ProgressDeadline": 0,
            "AutoRevert": false,
            "AutoPromote": false,
            "Canary": 0
        },
        "Periodic": null,
        "ParameterizedJob": null,
        "Dispatched": false,
        "Payload": null,
        "Meta": {
            "appVersion": "19.6.0.8",
            "envname": "dubdevpop"
        },
        "VaultToken": "",
        "Status": "running",
        "StatusDescription": "",
        "Stable": false,
        "Version": 0,
        "SubmitTime": 1569232563913802434,
        "CreateIndex": 18,
        "ModifyIndex": 18,
        "JobModifyIndex": 18
    },
    "TaskGroup": "gpas-game-configuration",
    "Resources": {
        "CPU": 100,
        "MemoryMB": 300,
        "DiskMB": 300,
        "IOPS": 0,
        "Networks": null,
        "Devices": null
    },
    "SharedResources": {
        "CPU": 0,
        "MemoryMB": 0,
        "DiskMB": 300,
        "IOPS": 0,
        "Networks": null,
        "Devices": null
    },
    "TaskResources": {
        "gpas-game-configuration": {
            "CPU": 100,
            "MemoryMB": 300,
            "DiskMB": 0,
            "IOPS": 0,
            "Networks": null,
            "Devices": null
        }
    },
    "AllocatedResources": {
        "Tasks": {
            "gpas-game-configuration": {
                "Cpu": {
                    "CpuShares": 100
                },
                "Memory": {
                    "MemoryMB": 300
                },
                "Networks": null,
                "Devices": null
            }
        },
        "Shared": {
            "DiskMB": 300
        }
    },
    "Metrics": {
        "NodesEvaluated": 1,
        "NodesFiltered": 0,
        "NodesAvailable": {
            "dub": 1
        },
        "ClassFiltered": null,
        "ConstraintFiltered": null,
        "NodesExhausted": 0,
        "ClassExhausted": null,
        "DimensionExhausted": null,
        "QuotaExhausted": null,
        "Scores": null,
        "ScoreMetaData": [{
            "NodeID": "127bb125-a0fc-b66b-0658-b4ea6158a5a0",
            "Scores": {
                "binpack": 0.18851601392741418
            },
            "NormScore": 0.18851601392741418
        }],
        "AllocationTime": 40787,
        "CoalescedFailures": 0
    },
    "DesiredStatus": "run",
    "DesiredTransition": {
        "Migrate": null,
        "Reschedule": null,
        "ForceReschedule": null
    },
    "ClientStatus": "running",
    "ClientDescription": "Tasks are running",
    "TaskStates": {
        "gpas-game-configuration": {
            "State": "running",
            "Failed": false,
            "Restarts": 0,
            "LastRestart": "0001-01-01T00:00:00Z",
            "StartedAt": "2019-09-23T09:56:04.996308863Z",
            "FinishedAt": "0001-01-01T00:00:00Z",
            "Events": [{
                "Type": "Received",
                "Time": 1569232563916133769,
                "Message": "",
                "DisplayMessage": "Task received by client",
                "Details": {},
                "FailsTask": false,
                "RestartReason": "",
                "SetupError": "",
                "DriverError": "",
                "ExitCode": 0,
                "Signal": 0,
                "KillTimeout": 0,
                "KillError": "",
                "KillReason": "",
                "StartDelay": 0,
                "DownloadError": "",
                "ValidationError": "",
                "DiskLimit": 0,
                "FailedSibling": "",
                "VaultError": "",
                "TaskSignalReason": "",
                "TaskSignal": "",
                "DriverMessage": "",
                "GenericSource": ""
            }, {
                "Type": "Task Setup",
                "Time": 1569232563916385700,
                "Message": "Building Task Directory",
                "DisplayMessage": "Building Task Directory",
                "Details": {
                    "message": "Building Task Directory"
                },
                "FailsTask": false,
                "RestartReason": "",
                "SetupError": "",
                "DriverError": "",
                "ExitCode": 0,
                "Signal": 0,
                "KillTimeout": 0,
                "KillError": "",
                "KillReason": "",
                "StartDelay": 0,
                "DownloadError": "",
                "ValidationError": "",
                "DiskLimit": 0,
                "FailedSibling": "",
                "VaultError": "",
                "TaskSignalReason": "",
                "TaskSignal": "",
                "DriverMessage": "",
                "GenericSource": ""
            }, {
                "Type": "Started",
                "Time": 1569232564996306777,
                "Message": "",
                "DisplayMessage": "Task started by client",
                "Details": {},
                "FailsTask": false,
                "RestartReason": "",
                "SetupError": "",
                "DriverError": "",
                "ExitCode": 0,
                "Signal": 0,
                "KillTimeout": 0,
                "KillError": "",
                "KillReason": "",
                "StartDelay": 0,
                "DownloadError": "",
                "ValidationError": "",
                "DiskLimit": 0,
                "FailedSibling": "",
                "VaultError": "",
                "TaskSignalReason": "",
                "TaskSignal": "",
                "DriverMessage": "",
                "GenericSource": ""
            }]
        }
    },
    "CreateIndex": 20,
    "ModifyIndex": 31,
    "AllocModifyIndex": 20,
    "CreateTime": 1569232563914596805,
    "ModifyTime": 1569232565031999199
}
