{
    "ID": "48cc0edd-20f6-b7ae-1027-6827a27a4051",
    "Namespace": "default",
    "EvalID": "2ed7e151-76a7-dcd1-bd5d-68d85b97ef1c",
    "Name": "dubdevpop-gpas-container.gpas-container[0]",
    "NodeID": "127bb125-a0fc-b66b-0658-b4ea6158a5a0",
    "NodeName": "trainer-arch",
    "JobID": "dubdevpop-gpas-container",
    "Job": {
        "Stop": false,
        "Region": "global",
        "Namespace": "default",
        "ID": "dubdevpop-gpas-container",
        "ParentID": "",
        "Name": "dubdevpop-gpas-container",
        "Type": "service",
        "Priority": 50,
        "AllAtOnce": false,
        "Datacenters": ["dub"],
        "Constraints": null,
        "Affinities": null,
        "Spreads": null,
        "TaskGroups": [{
            "Name": "gpas-container",
            "Count": 3,
            "Update": {
                "Stagger": 30000000000,
                "MaxParallel": 1,
                "HealthCheck": "checks",
                "MinHealthyTime": 10000000000,
                "HealthyDeadline": 300000000000,
                "ProgressDeadline": 600000000000,
                "AutoRevert": false,
                "AutoPromote": false,
                "Canary": 0
            },
            "Migrate": {
                "MaxParallel": 1,
                "HealthCheck": "checks",
                "MinHealthyTime": 10000000000,
                "HealthyDeadline": 300000000000
            },
            "Constraints": [{
                "LTarget": "${attr.os.signals}",
                "RTarget": "SIGUSR2",
                "Operand": "set_contains"
            }],
            "RestartPolicy": {
                "Attempts": 2,
                "Interval": 1800000000000,
                "Delay": 15000000000,
                "Mode": "fail"
            },
            "Tasks": [{
                "Name": "gpas-container",
                "Driver": "docker",
                "User": "",
                "Config": {
                    "dns_servers": ["${meta.dns}"],
                    "image": "10.191.34.122:5000/gpas-container:${NOMAD_META_appVersion}",
                    "port_map": [{
                        "api": 1234.0
                    }],
                    "volumes": ["/var/local/gpas/game-engines/envs/${NOMAD_META_envname}:/var/local/gpas/gpas-container-pack/repositories", "local/run.sh:/run.sh", "conf:/var/local/gpas/gpas-container-pack/conf"],
                    "args": ["/bin/sh", "-c", "exec /run.sh /var/local/gpas/gpas-${GPAS_NODE_TYPE}-pack/bin/run 2>&1"]
                },
                "Env": {
                    "GPAS_LOG_LEVEL_ROOT": "INFO",
                    "GPAS_LOGSTASH_PORT": "5009",
                    "GPAS_LOGSTASH_HOST": "dubdevpop.logstash.service.consul",
                    "GPAS_MONITOR_PWD": "yvWXe8fjhtWZMx3iH8I",
                    "Xmx": "1600m",
                    "GPAS_INSTANCE": "${node.unique.name}.${NOMAD_ALLOC_ID}",
                    "EXT_IP": "${NOMAD_IP_akka}",
                    "GPAS_NODE_TYPE": "container",
                    "GPAS_MONITOR_USER": "monitor"
                },
                "Services": [{
                    "Name": "${NOMAD_GROUP_NAME}-akka",
                    "PortLabel": "akka",
                    "AddressMode": "auto",
                    "Tags": null,
                    "CanaryTags": null,
                    "Checks": null
                }, {
                    "Name": "gpas-api",
                    "PortLabel": "api",
                    "AddressMode": "auto",
                    "Tags": ["gpas-container-api"],
                    "CanaryTags": null,
                    "Checks": [{
                        "Name": "check_api",
                        "Type": "script",
                        "Command": "/var/local/gpas/gpas-container-pack/conf/check_api.sh",
                        "Args": null,
                        "Path": "",
                        "Protocol": "",
                        "PortLabel": "",
                        "AddressMode": "",
                        "Interval": 15000000000,
                        "Timeout": 60000000000,
                        "InitialStatus": "",
                        "TLSSkipVerify": false,
                        "Method": "",
                        "Header": null,
                        "CheckRestart": {
                            "Limit": 3,
                            "Grace": 90000000000,
                            "IgnoreWarnings": false
                        },
                        "GRPCService": "",
                        "GRPCUseTLS": false
                    }]
                }],
                "Vault": null,
                "Templates": [{
                    "SourcePath": "",
                    "DestPath": "conf/check_api.sh",
                    "EmbeddedTmpl": "#!/usr/bin/env bash\n\nset -ex\n\nhostname\necho $0\nSTATUS=$(curl -v \"${NOMAD_ADDR_api}/service/monitor?self=true&remote=false&service=com.playtech.gpas.history.gdk.cycle\" |jq -r '.status')\nif [[ \"$STATUS\" != \"OK\" ]]; then\n  echo $STATUS\n  exit 2\nfi\n\nexit 0\n",
                    "ChangeMode": "restart",
                    "ChangeSignal": "",
                    "Splay": 5000000000,
                    "Perms": "0755",
                    "LeftDelim": "{{",
                    "RightDelim": "}}",
                    "Envvars": false,
                    "VaultGrace": 15000000000
                }, {
                    "SourcePath": "",
                    "DestPath": "conf/application.conf",
                    "EmbeddedTmpl": "akka {\n    cluster {\n        seed-nodes = [ {{range service \"gpas-container-akka\"}}\"akka.tcp://gpas@{{.Address}}:{{.Port}}\",{{end}}\n                        {{range service \"gpas-core-akka\"}}\"akka.tcp://gpas@{{.Address}}:{{.Port}}\",{{end}} ]\n            acceptable-heartbeat-pause = 30s\n            expected-response-after = 15s\n            monitored-by-nr-of-members = 10\n            seed-node-timeout = 15s\n            leader-actions-interval = 5s\n            unreachable-nodes-reaper-interval = 30s\n            failure-detector {\n                acceptable-heartbeat-pause = 30s\n                threshold = 20\n            }\n            auto-down-unreachable-after = off\n        }\n    }\n\nplaytech {\n    platform {\n        app {\n            name = container\n            instance = \"{{ env \"GPAS_INSTANCE\" }}\"\n        }\n        akka {\n            cluster-host = {{ env \"NOMAD_IP_akka\" }}\n            cluster-port = {{ env \"NOMAD_HOST_PORT_akka\" }}\n            bind-host = 0.0.0.0\n            bind-port =  {{ env \"NOMAD_HOST_PORT_akka\" }}\n        }\n        endpoint.monitor.system.auth {\n            {{ env \"GPAS_MONITOR_USER\" }} = {{ env \"GPAS_MONITOR_PWD\" }}\n        }\n        service {\n            metrics {\n                graphite {\n                    enabled = false\n                    host = \"\"\n                    prefix = \"{{ env \"NOMAD_GROUP_NAME\"}}.{{ env \"NOMAD_ALLOC_ID\" }}.gpas-{{ env \"NOMAD_META_envname\" }}\"\n                }\n            }\n        }\n    }\n    gpas {\n        # GPAS Engine Container\n        container {\n           # component package repositories (paths to directories where components reside in subdirectories)\n            repositories = [\"/var/local/gpas/gpas-container-pack/repositories\"]\n            # component package locations (direct paths)\n            locations = []\n            # interval for periodic rescanning of repositories to find new/modified packages and reloading; set to 0 to disable rescanning\n            rescan-interval = 10s\n            # whether modified packages should be reloaded\n            reload-modified-packages = true\n            dispatcher {\n                sync-dispatcher {\n                    type = Dispatcher\n                    executor = \"fork-join-executor\"\n                    fork-join-executor {\n                        parallelism-min = 16\n                        parallelism-factor = 10000 # let it only be limited by parallelism-max\n                        parallelism-max = 300\n                }\n                }\n           }\n        }\n    }\n}\n\n// optional host-specific addendum\ninclude \"application-local\"\n\n# increase timeouts services (GPAS-16584)\nplaytech.platform.service.framework.timeout {\n  # wait for close services and modules (discovery, etc)\n  close = 6s\n  # wait for actor system termination\n  actor-system-graceful-termination = 30s\n  # wait for actor system termination with NON-graceful termination\n  actor-system-rude-termination = 10s\n}\n\nakka.cluster.allow-weakly-up-members = false\n",
                    "ChangeMode": "noop",
                    "ChangeSignal": "",
                    "Splay": 5000000000,
                    "Perms": "0644",
                    "LeftDelim": "{{",
                    "RightDelim": "}}",
                    "Envvars": false,
                    "VaultGrace": 15000000000
                }, {
                    "SourcePath": "",
                    "DestPath": "local/run.sh",
                    "EmbeddedTmpl": "#!/bin/bash\nPRG=\"$1\"\n_term() {\n  echo \"Caught USR2 signal!\"\n  kill -USR2 \"$child\" 2>/dev/null\n  pkill -USR2 java  2>/dev/null\n}\ntrap _term USR2\necho \"Run v.2\";\n$PRG &\nPID=$!\nwait $PID\ntrap - USR2\nwait $PID\nEXIT_STATUS=$?\n",
                    "ChangeMode": "noop",
                    "ChangeSignal": "",
                    "Splay": 5000000000,
                    "Perms": "0755",
                    "LeftDelim": "{{",
                    "RightDelim": "}}",
                    "Envvars": false,
                    "VaultGrace": 15000000000
                }, {
                    "SourcePath": "",
                    "DestPath": "conf/logback.xml",
                    "EmbeddedTmpl": "<?xml version=\"1.0\" encoding=\"UTF-8\"?>\n<configuration debug=\"true\">\n    <jmxConfigurator/>\n    <include resource=\"logback-gpas-base.xml\"/>\n    <property name=\"LOGSTASH_DESTINATION\" value=\"${GPAS_LOGSTASH_HOST}:${GPAS_LOGSTASH_PORT},\"/>\n    <!--include resource=\"logback-gpas-console.xml\"/-->\n    <include resource=\"logback-gpas-file.xml\"/>\n    <include resource=\"logback-gpas-logstash.xml\"/>\n    <root level=\"${GPAS_LOG_LEVEL_ROOT}\"/>\n    <logger name=\"com.playtech\" level=\"DEBUG\"/>\n    <logger name=\"com.playtech.gpas.frontend.socketio\" level=\"INFO\"/>\n    <logger name=\"com.playtech.gpas\" level=\"DEBUG\"/>\n    <logger name=\"spray.contrib.socketio\" level=\"WARN\"/>\n    <logger name=\"gpas.stat.client\" level=\"TRACE\"/>\n    <logger name=\"com.playtech.gpas.frontend.FrontendActor.INPUT\" level=\"TRACE\"/>\n</configuration>\n",
                    "ChangeMode": "noop",
                    "ChangeSignal": "",
                    "Splay": 5000000000,
                    "Perms": "0644",
                    "LeftDelim": "{{",
                    "RightDelim": "}}",
                    "Envvars": false,
                    "VaultGrace": 15000000000
                }],
                "Constraints": [{
                    "LTarget": "${meta.network_segment}",
                    "RTarget": "privil",
                    "Operand": "regexp"
                }, {
                    "LTarget": "${meta.app}",
                    "RTarget": "gpas",
                    "Operand": "="
                }],
                "Affinities": null,
                "Resources": {
                    "CPU": 2000,
                    "MemoryMB": 2048,
                    "DiskMB": 0,
                    "IOPS": 0,
                    "Networks": [{
                        "Device": "",
                        "CIDR": "",
                        "IP": "",
                        "MBits": 10,
                        "ReservedPorts": null,
                        "DynamicPorts": [{
                            "Label": "akka",
                            "Value": 0
                        }, {
                            "Label": "api",
                            "Value": 0
                        }]
                    }],
                    "Devices": null
                },
                "DispatchPayload": null,
                "Meta": null,
                "KillTimeout": 300000000000,
                "LogConfig": {
                    "MaxFiles": 10,
                    "MaxFileSizeMB": 10
                },
                "Artifacts": null,
                "Leader": false,
                "ShutdownDelay": 10000000000,
                "KillSignal": "SIGUSR2"
            }],
            "EphemeralDisk": {
                "Sticky": false,
                "SizeMB": 300,
                "Migrate": false
            },
            "Meta": null,
            "ReschedulePolicy": {
                "Attempts": 0,
                "Interval": 0,
                "Delay": 30000000000,
                "DelayFunction": "exponential",
                "MaxDelay": 3600000000000,
                "Unlimited": true
            },
            "Affinities": null,
            "Spreads": null
        }],
        "Update": {
            "Stagger": 30000000000,
            "MaxParallel": 1,
            "HealthCheck": "",
            "MinHealthyTime": 0,
            "HealthyDeadline": 0,
            "ProgressDeadline": 0,
            "AutoRevert": false,
            "AutoPromote": false,
            "Canary": 0
        },
        "Periodic": null,
        "ParameterizedJob": null,
        "Dispatched": false,
        "Payload": null,
        "Meta": {
            "appVersion": "19.9.0.21",
            "envname": "dubdevpop"
        },
        "VaultToken": "",
        "Status": "pending",
        "StatusDescription": "",
        "Stable": false,
        "Version": 0,
        "SubmitTime": 1569232567140264479,
        "CreateIndex": 44,
        "ModifyIndex": 44,
        "JobModifyIndex": 44
    },
    "TaskGroup": "gpas-container",
    "Resources": {
        "CPU": 2000,
        "MemoryMB": 2048,
        "DiskMB": 300,
        "IOPS": 0,
        "Networks": [{
            "Device": "wlp8s0",
            "CIDR": "",
            "IP": "192.168.26.239",
            "MBits": 10,
            "ReservedPorts": null,
            "DynamicPorts": [{
                "Label": "akka",
                "Value": 26341
            }, {
                "Label": "api",
                "Value": 20711
            }]
        }],
        "Devices": null
    },
    "SharedResources": {
        "CPU": 0,
        "MemoryMB": 0,
        "DiskMB": 300,
        "IOPS": 0,
        "Networks": null,
        "Devices": null
    },
    "TaskResources": {
        "gpas-container": {
            "CPU": 2000,
            "MemoryMB": 2048,
            "DiskMB": 0,
            "IOPS": 0,
            "Networks": [{
                "Device": "wlp8s0",
                "CIDR": "",
                "IP": "192.168.26.239",
                "MBits": 10,
                "ReservedPorts": null,
                "DynamicPorts": [{
                    "Label": "akka",
                    "Value": 26341
                }, {
                    "Label": "api",
                    "Value": 20711
                }]
            }],
            "Devices": null
        }
    },
    "AllocatedResources": {
        "Tasks": {
            "gpas-container": {
                "Cpu": {
                    "CpuShares": 2000
                },
                "Memory": {
                    "MemoryMB": 2048
                },
                "Networks": [{
                    "Device": "wlp8s0",
                    "CIDR": "",
                    "IP": "192.168.26.239",
                    "MBits": 10,
                    "ReservedPorts": null,
                    "DynamicPorts": [{
                        "Label": "akka",
                        "Value": 26341
                    }, {
                        "Label": "api",
                        "Value": 20711
                    }]
                }],
                "Devices": null
            }
        },
        "Shared": {
            "DiskMB": 300
        }
    },
    "Metrics": {
        "NodesEvaluated": 1,
        "NodesFiltered": 0,
        "NodesAvailable": {
            "dub": 1
        },
        "ClassFiltered": null,
        "ConstraintFiltered": null,
        "NodesExhausted": 0,
        "ClassExhausted": null,
        "DimensionExhausted": null,
        "QuotaExhausted": null,
        "Scores": null,
        "ScoreMetaData": [{
            "NodeID": "127bb125-a0fc-b66b-0658-b4ea6158a5a0",
            "Scores": {
                "node-affinity": 0.0,
                "binpack": 0.5133068720958386,
                "job-anti-affinity": 0.0,
                "node-reschedule-penalty": 0.0
            },
            "NormScore": 0.5133068720958386
        }],
        "AllocationTime": 93715,
        "CoalescedFailures": 0
    },
    "DesiredStatus": "run",
    "DesiredTransition": {
        "Migrate": null,
        "Reschedule": null,
        "ForceReschedule": null
    },
    "ClientStatus": "running",
    "ClientDescription": "Tasks are running",
    "TaskStates": {
        "gpas-container": {
            "State": "running",
            "Failed": false,
            "Restarts": 1,
            "LastRestart": "2019-09-23T13:32:09.804220907+03:00",
            "StartedAt": "2019-09-23T10:32:27.864092764Z",
            "FinishedAt": "0001-01-01T00:00:00Z",
            "Events": [{
                "Type": "Received",
                "Time": 1569232567152034766,
                "Message": "",
                "DisplayMessage": "Task received by client",
                "Details": {},
                "FailsTask": false,
                "RestartReason": "",
                "SetupError": "",
                "DriverError": "",
                "ExitCode": 0,
                "Signal": 0,
                "KillTimeout": 0,
                "KillError": "",
                "KillReason": "",
                "StartDelay": 0,
                "DownloadError": "",
                "ValidationError": "",
                "DiskLimit": 0,
                "FailedSibling": "",
                "VaultError": "",
                "TaskSignalReason": "",
                "TaskSignal": "",
                "DriverMessage": "",
                "GenericSource": ""
            }, {
                "Type": "Task Setup",
                "Time": 1569232567153397512,
                "Message": "Building Task Directory",
                "DisplayMessage": "Building Task Directory",
                "Details": {
                    "message": "Building Task Directory"
                },
                "FailsTask": false,
                "RestartReason": "",
                "SetupError": "",
                "DriverError": "",
                "ExitCode": 0,
                "Signal": 0,
                "KillTimeout": 0,
                "KillError": "",
                "KillReason": "",
                "StartDelay": 0,
                "DownloadError": "",
                "ValidationError": "",
                "DiskLimit": 0,
                "FailedSibling": "",
                "VaultError": "",
                "TaskSignalReason": "",
                "TaskSignal": "",
                "DriverMessage": "",
                "GenericSource": ""
            }, {
                "Type": "Started",
                "Time": 1569232569342317183,
                "Message": "",
                "DisplayMessage": "Task started by client",
                "Details": {},
                "FailsTask": false,
                "RestartReason": "",
                "SetupError": "",
                "DriverError": "",
                "ExitCode": 0,
                "Signal": 0,
                "KillTimeout": 0,
                "KillError": "",
                "KillReason": "",
                "StartDelay": 0,
                "DownloadError": "",
                "ValidationError": "",
                "DiskLimit": 0,
                "FailedSibling": "",
                "VaultError": "",
                "TaskSignalReason": "",
                "TaskSignal": "",
                "DriverMessage": "",
                "GenericSource": ""
            }, {
                "Type": "Terminated",
                "Time": 1569234729765055499,
                "Message": "OOM Killed",
                "DisplayMessage": "Exit Code: 0, Exit Message: \"OOM Killed\"",
                "Details": {
                    "exit_code": "0",
                    "signal": "0",
                    "oom_killed": "true",
                    "exit_message": "OOM Killed"
                },
                "FailsTask": false,
                "RestartReason": "",
                "SetupError": "",
                "DriverError": "",
                "ExitCode": 0,
                "Signal": 0,
                "KillTimeout": 0,
                "KillError": "",
                "KillReason": "",
                "StartDelay": 0,
                "DownloadError": "",
                "ValidationError": "",
                "DiskLimit": 0,
                "FailedSibling": "",
                "VaultError": "",
                "TaskSignalReason": "",
                "TaskSignal": "",
                "DriverMessage": "",
                "GenericSource": ""
            }, {
                "Type": "Restarting",
                "Time": 1569234729804220907,
                "Message": "",
                "DisplayMessage": "Task restarting in 17.362002287s",
                "Details": {
                    "start_delay": "17362002287",
                    "restart_reason": "Restart within policy"
                },
                "FailsTask": false,
                "RestartReason": "Restart within policy",
                "SetupError": "",
                "DriverError": "",
                "ExitCode": 0,
                "Signal": 0,
                "KillTimeout": 0,
                "KillError": "",
                "KillReason": "",
                "StartDelay": 17362002287,
                "DownloadError": "",
                "ValidationError": "",
                "DiskLimit": 0,
                "FailedSibling": "",
                "VaultError": "",
                "TaskSignalReason": "",
                "TaskSignal": "",
                "DriverMessage": "",
                "GenericSource": ""
            }, {
                "Type": "Started",
                "Time": 1569234747864087104,
                "Message": "",
                "DisplayMessage": "Task started by client",
                "Details": {},
                "FailsTask": false,
                "RestartReason": "",
                "SetupError": "",
                "DriverError": "",
                "ExitCode": 0,
                "Signal": 0,
                "KillTimeout": 0,
                "KillError": "",
                "KillReason": "",
                "StartDelay": 0,
                "DownloadError": "",
                "ValidationError": "",
                "DiskLimit": 0,
                "FailedSibling": "",
                "VaultError": "",
                "TaskSignalReason": "",
                "TaskSignal": "",
                "DriverMessage": "",
                "GenericSource": ""
            }]
        }
    },
    "DeploymentID": "b3c2d947-b05c-bf87-4b4b-1be8af036c1a",
    "DeploymentStatus": {
        "Healthy": true,
        "Timestamp": "2019-09-23T12:56:53.157650364+03:00",
        "Canary": false,
        "ModifyIndex": 59
    },
    "CreateIndex": 46,
    "ModifyIndex": 114,
    "AllocModifyIndex": 46,
    "CreateTime": 1569232567141290445,
    "ModifyTime": 1569234748031921260
}
